{
  "count": 74427,
  "next": "https://gutendex.com/books/?page=2",
  "previous": null,
  "results": [
    {
      "id": 84,
      "title": "Frankenstein; Or, The Modern Prometheus",
      "authors": [
        {
          "name": "Shelley, Mary Wollstonecraft",
          "birth_year": 1797,
          "death_year": 1851
        }
      ],
      "translators": [],
      "subjects": [
        "Frankenstein's monster (Fictitious character) -- Fiction",
        "Frankenstein, Victor (Fictitious character) -- Fiction",
        "Gothic fiction",
        "Horror tales",
        "Monsters -- Fiction",
        "Science fiction",
        "Scientists -- Fiction"
      ],
      "bookshelves": [
        "Browsing: Culture/Civilization/Society",
        "Browsing: Fiction",
        "Browsing: Gender & Sexuality Studies",
        "Browsing: Literature",
        "Browsing: Science-Fiction & Fantasy",
        "Gothic Fiction",
        "Movie Books",
        "Precursors of Science Fiction",
        "Science Fiction by Women"
      ],
      "languages": ["en"],
      "copyright": false,
      "media_type": "Text",
      "formats": {
        "text/html": "https://www.gutenberg.org/ebooks/84.html.images",
        "application/epub+zip": "https://www.gutenberg.org/ebooks/84.epub3.images",
        "application/x-mobipocket-ebook": "https://www.gutenberg.org/ebooks/84.kf8.images",
        "application/rdf+xml": "https://www.gutenberg.org/ebooks/84.rdf",
        "image/jpeg": "https://www.gutenberg.org/cache/epub/84/pg84.cover.medium.jpg",
        "text/plain; charset=us-ascii": "https://www.gutenberg.org/ebooks/84.txt.utf-8",
        "application/octet-stream": "https://www.gutenberg.org/cache/epub/84/pg84-h.zip"
      },
      "download_count": 78467
    }
  ]
}
